\relax 
\providecommand\hyper@newdestlabel[2]{}
\catcode `"\active 
\catcode `-\active 
\providecommand\HyperFirstAtBeginDocument{\AtBeginDocument}
\HyperFirstAtBeginDocument{\ifx\hyper@anchor\@undefined
\global\let\oldcontentsline\contentsline
\gdef\contentsline#1#2#3#4{\oldcontentsline{#1}{#2}{#3}}
\global\let\oldnewlabel\newlabel
\gdef\newlabel#1#2{\newlabelxx{#1}#2}
\gdef\newlabelxx#1#2#3#4#5#6{\oldnewlabel{#1}{{#2}{#3}}}
\AtEndDocument{\ifx\hyper@anchor\@undefined
\let\contentsline\oldcontentsline
\let\newlabel\oldnewlabel
\fi}
\fi}
\global\let\hyper@last\relax 
\gdef\HyperFirstAtBeginDocument#1{#1}
\providecommand\HyField@AuxAddToFields[1]{}
\providecommand\HyField@AuxAddToCoFields[2]{}
\select@language{british}
\@writefile{toc}{\select@language{british}}
\@writefile{lof}{\select@language{british}}
\@writefile{lot}{\select@language{british}}
\select@language{czech}
\@writefile{toc}{\select@language{czech}}
\@writefile{lof}{\select@language{czech}}
\@writefile{lot}{\select@language{czech}}
\citation{Manning}
\citation{Manning}
\citation{Schwarz}
\@writefile{toc}{\contentsline {chapter}{\numberline {1}Indexace}{3}{chapter.1}}
\@writefile{lof}{\addvspace {10\p@ }}
\@writefile{lot}{\addvspace {10\p@ }}
\@writefile{toc}{\contentsline {section}{\numberline {1.1}Postup indexace}{3}{section.1.1}}
\@writefile{toc}{\contentsline {subsection}{\numberline {1.1.1}Tokenizace}{3}{subsection.1.1.1}}
\citation{Manning}
\citation{Baeza}
\citation{mastersthesis}
\citation{BioLemmatizer}
\@writefile{toc}{\contentsline {subsection}{\numberline {1.1.2}Odstran\IeC {\v e}n\IeC {\'\i } nev\IeC {\'y}znamov\IeC {\'y}ch slov}{4}{subsection.1.1.2}}
\@writefile{toc}{\contentsline {subsection}{\numberline {1.1.3}Normalizace}{4}{subsection.1.1.3}}
\@writefile{lot}{\contentsline {table}{\numberline {1.1}{\ignorespaces Porovn\IeC {\'a}n\IeC {\'\i } stematizace a lematizace}}{5}{table.1.1}}
\newlabel{tabulkaStematizace}{{1.1}{5}{Porovnání stematizace a lematizace}{table.1.1}{}}
\@writefile{toc}{\contentsline {subsection}{\numberline {1.1.4}Invertovan\IeC {\'y} seznam}{5}{subsection.1.1.4}}
\citation{mastersthesis}
\citation{Mining}
\citation{Baeza}
\@writefile{toc}{\contentsline {chapter}{\numberline {2}Reprezentace textov\IeC {\'y}ch dokument\IeC {\r u}}{6}{chapter.2}}
\@writefile{lof}{\addvspace {10\p@ }}
\@writefile{lot}{\addvspace {10\p@ }}
\@writefile{toc}{\contentsline {section}{\numberline {2.1}Bag of words}{6}{section.2.1}}
\@writefile{toc}{\contentsline {section}{\numberline {2.2}Booleovsk\IeC {\'y} model}{6}{section.2.2}}
\citation{Kratky}
\citation{Salton}
\@writefile{lot}{\contentsline {table}{\numberline {2.1}{\ignorespaces Uk\IeC {\'a}zkov\IeC {\'a} matice v\IeC {\'y}skyt\IeC {\r u}}}{7}{table.2.1}}
\newlabel{boolVyrazy}{{2.1}{7}{Ukázková matice výskytů}{table.2.1}{}}
\@writefile{toc}{\contentsline {section}{\numberline {2.3}Vektorov\IeC {\'y} model}{7}{section.2.3}}
\citation{Manning}
\citation{Hastings}
\citation{Kratky}
\@writefile{toc}{\contentsline {section}{\numberline {2.4}Latent Semantic Analysis}{8}{section.2.4}}
\citation{Kratky}
\citation{LDA}
\citation{SLDA}
\citation{wiki:LDA}
\@writefile{lof}{\contentsline {figure}{\numberline {2.1}{\ignorespaces Singul\IeC {\'a}rn\IeC {\'\i } rozklad matice A}}{9}{figure.2.1}}
\newlabel{SVD}{{2.1}{9}{Singulární rozklad matice A}{figure.2.1}{}}
\newlabel{dk}{{2.1}{9}{Latent Semantic Analysis}{equation.2.4.1}{}}
\newlabel{tk}{{2.2}{9}{Latent Semantic Analysis}{equation.2.4.2}{}}
\@writefile{toc}{\contentsline {section}{\numberline {2.5}Latent Dirichlet Allocation}{9}{section.2.5}}
\citation{LDAeasy}
\citation{wiki:LDA}
\newlabel{LDA}{{2.3}{10}{Latent Dirichlet Allocation}{equation.2.5.3}{}}
\@writefile{lof}{\contentsline {figure}{\numberline {2.2}{\ignorespaces Zn\IeC {\'a}zorn\IeC {\v e}n\IeC {\'\i } Latent Dirichlet Allocation}}{11}{figure.2.2}}
\newlabel{LDA}{{2.2}{11}{Znázornění Latent Dirichlet Allocation}{figure.2.2}{}}
\citation{Mining}
\@writefile{toc}{\contentsline {chapter}{\numberline {3}V\IeC {\'a}hov\IeC {\'a}n\IeC {\'\i } term\IeC {\r u}}{12}{chapter.3}}
\@writefile{lof}{\addvspace {10\p@ }}
\@writefile{lot}{\addvspace {10\p@ }}
\@writefile{toc}{\contentsline {section}{\numberline {3.1}Bin\IeC {\'a}rn\IeC {\'\i } v\IeC {\'a}ha}{12}{section.3.1}}
\@writefile{toc}{\contentsline {section}{\numberline {3.2}Frekvence termu}{12}{section.3.2}}
\citation{SearchEngines}
\citation{Mining}
\citation{Manning}
\citation{Manning}
\newlabel{TF}{{3.1}{13}{Frekvence termu}{equation.3.2.1}{}}
\newlabel{TF-max}{{3.2}{13}{Frekvence termu}{equation.3.2.2}{}}
\@writefile{toc}{\contentsline {section}{\numberline {3.3}Inverzn\IeC {\'\i } frekvence dokumentu}{13}{section.3.3}}
\newlabel{idf}{{3.3}{13}{Inverzní frekvence dokumentu}{equation.3.3.3}{}}
\@writefile{toc}{\contentsline {section}{\numberline {3.4}tf-idf}{13}{section.3.4}}
\newlabel{tf-idf}{{3.4}{13}{tf-idf}{equation.3.4.4}{}}
\@writefile{lot}{\contentsline {table}{\numberline {3.1}{\ignorespaces Uk\IeC {\'a}zka frekvence termu}}{14}{table.3.1}}
\newlabel{tfTabulka}{{3.1}{14}{Ukázka frekvence termu}{table.3.1}{}}
\@writefile{lot}{\contentsline {table}{\numberline {3.2}{\ignorespaces Uk\IeC {\'a}zka inverzn\IeC {\'\i } frekvence dokumentu}}{14}{table.3.2}}
\newlabel{idfTabulka}{{3.2}{14}{Ukázka inverzní frekvence dokumentu}{table.3.2}{}}
\@writefile{lot}{\contentsline {table}{\numberline {3.3}{\ignorespaces Uk\IeC {\'a}zka tf-idf m\IeC {\'\i }ry}}{14}{table.3.3}}
\newlabel{tf-idfTabulka}{{3.3}{14}{Ukázka tf-idf míry}{table.3.3}{}}
\@writefile{toc}{\contentsline {chapter}{\numberline {4}Porovn\IeC {\'a}v\IeC {\'a}n\IeC {\'\i } dokument\IeC {\r u}}{15}{chapter.4}}
\@writefile{lof}{\addvspace {10\p@ }}
\@writefile{lot}{\addvspace {10\p@ }}
\@writefile{toc}{\contentsline {section}{\numberline {4.1}Euklidovsk\IeC {\'a} vzd\IeC {\'a}lenost}{15}{section.4.1}}
\newlabel{euclid}{{4.1}{15}{Euklidovská vzdálenost}{equation.4.1.1}{}}
\@writefile{toc}{\contentsline {section}{\numberline {4.2}Kosinov\IeC {\'a} podobnost}{15}{section.4.2}}
\citation{jaccard}
\@writefile{lof}{\contentsline {figure}{\numberline {4.1}{\ignorespaces Euklidovsk\IeC {\'a} vzd\IeC {\'a}lenost}}{16}{figure.4.1}}
\newlabel{VektorModel}{{4.1}{16}{Euklidovská vzdálenost}{figure.4.1}{}}
\newlabel{cos}{{4.2}{16}{Kosinová podobnost}{equation.4.2.2}{}}
\@writefile{toc}{\contentsline {section}{\numberline {4.3}Jaccard\IeC {\r u}v index}{16}{section.4.3}}
\newlabel{kosinovaPodobnost}{{4.2}{17}{Kosinová podobnost}{equation.4.2.2}{}}
\@writefile{lot}{\contentsline {table}{\numberline {4.1}{\ignorespaces Kosinov\IeC {\'a} podobnost mezi dokumenty}}{17}{table.4.1}}
\newlabel{jaccard}{{4.3}{17}{Jaccardův index}{equation.4.3.3}{}}
\@writefile{toc}{\contentsline {section}{\numberline {4.4}Kullback-Leibler divergence}{17}{section.4.4}}
\newlabel{kl}{{4.4}{17}{Kullback-Leibler divergence}{equation.4.4.4}{}}
\citation{Manning}
\citation{wiki:PR}
\citation{Manning}
\citation{wiki:PR}
\@writefile{toc}{\contentsline {chapter}{\numberline {5}Vyhodnocen\IeC {\'\i } v\IeC {\'y}sledk\IeC {\r u}}{18}{chapter.5}}
\@writefile{lof}{\addvspace {10\p@ }}
\@writefile{lot}{\addvspace {10\p@ }}
\@writefile{toc}{\contentsline {section}{\numberline {5.1}Precision}{18}{section.5.1}}
\newlabel{prec}{{5.1}{18}{Precision}{equation.5.1.1}{}}
\@writefile{toc}{\contentsline {section}{\numberline {5.2}\IeC {\'U}plnost}{18}{section.5.2}}
\newlabel{prec}{{5.2}{18}{Úplnost}{equation.5.2.2}{}}
\@writefile{toc}{\contentsline {section}{\numberline {5.3}Accuracy}{18}{section.5.3}}
\citation{Baeza}
\citation{Manning}
\newlabel{accuracy}{{5.3}{19}{Accuracy}{section.5.3}{}}
\@writefile{lot}{\contentsline {table}{\numberline {5.1}{\ignorespaces Vyhodnocov\IeC {\'a}n\IeC {\'\i } v\IeC {\'y}sledk\IeC {\r u}}}{19}{table.5.1}}
\newlabel{prec}{{5.3}{19}{Accuracy}{equation.5.3.3}{}}
\newlabel{acc}{{5.5}{19}{Accuracy}{equation.5.3.5}{}}
\@writefile{toc}{\contentsline {section}{\numberline {5.4}F-m\IeC {\'\i }ra}{19}{section.5.4}}
\newlabel{f}{{5.6}{19}{F-míra}{equation.5.4.6}{}}
\citation{Mining}
\citation{jaccard}
\@writefile{toc}{\contentsline {chapter}{\numberline {6}Detekce t\IeC {\'e}m\IeC {\v e}\IeC {\v r} duplicitn\IeC {\'\i }ch dokument\IeC {\r u}}{20}{chapter.6}}
\@writefile{lof}{\addvspace {10\p@ }}
\@writefile{lot}{\addvspace {10\p@ }}
\@writefile{toc}{\contentsline {section}{\numberline {6.1}Shingling}{20}{section.6.1}}
\citation{Mining}
\citation{lecocq}
\@writefile{toc}{\contentsline {section}{\numberline {6.2}MinHashing}{21}{section.6.2}}
\@writefile{toc}{\contentsline {section}{\numberline {6.3}Locality Sensitive Hashing}{22}{section.6.3}}
\citation{entity}
\@writefile{toc}{\contentsline {chapter}{\numberline {7}Rozpozn\IeC {\'a}v\IeC {\'a}n\IeC {\'\i } pojmenovan\IeC {\'y}ch entit}{23}{chapter.7}}
\@writefile{lof}{\addvspace {10\p@ }}
\@writefile{lot}{\addvspace {10\p@ }}
\@writefile{toc}{\contentsline {section}{\numberline {7.1}N\IeC {\'a}stroje pro anglick\IeC {\'y} jazyk}{23}{section.7.1}}
\citation{strakova14}
\@writefile{toc}{\contentsline {section}{\numberline {7.2}N\IeC {\'a}stroj pro \IeC {\v c}esk\IeC {\'y} jazyk}{24}{section.7.2}}
\@writefile{lof}{\contentsline {figure}{\numberline {7.1}{\ignorespaces 62 t\IeC {\v r}\IeC {\'\i }d dvoustup\IeC {\v n}ov\IeC {\'e} hirearchie modelu 1.1}}{25}{figure.7.1}}
\newlabel{nameTag11}{{7.1}{25}{62 tříd dvoustupňové hirearchie modelu 1.1}{figure.7.1}{}}
\@writefile{lof}{\contentsline {figure}{\numberline {7.2}{\ignorespaces 46 t\IeC {\v r}\IeC {\'\i }d dvoustup\IeC {\v n}ov\IeC {\'e} hirearchie modelu 2.0}}{26}{figure.7.2}}
\newlabel{nameTag20}{{7.2}{26}{46 tříd dvoustupňové hirearchie modelu 2.0}{figure.7.2}{}}
\citation{lucene}
\citation{analyzery}
\@writefile{toc}{\contentsline {chapter}{\numberline {8}Apache Lucene}{27}{chapter.8}}
\@writefile{lof}{\addvspace {10\p@ }}
\@writefile{lot}{\addvspace {10\p@ }}
\@writefile{toc}{\contentsline {section}{\numberline {8.1}Podobnost v Lucene}{27}{section.8.1}}
\citation{scoring}
\@writefile{toc}{\contentsline {section}{\numberline {8.2}Lucene scoring formula}{28}{section.8.2}}
\newlabel{luceneScoring}{{8.1}{28}{Lucene scoring formula}{equation.8.2.1}{}}
\citation{mlt}
\citation{tika}
\@writefile{toc}{\contentsline {section}{\numberline {8.3}More like this}{29}{section.8.3}}
\@writefile{toc}{\contentsline {section}{\numberline {8.4}Apache Tika}{29}{section.8.4}}
\@writefile{toc}{\contentsline {section}{\numberline {8.5}Luke}{29}{section.8.5}}
\citation{luke}
\bibstyle{csplainnatkiv}
\bibdata{teorie}
\@writefile{lof}{\contentsline {figure}{\numberline {8.1}{\ignorespaces U\IeC {\'a}zka UI Luke}}{30}{figure.8.1}}
\newlabel{luke}{{8.1}{30}{Uázka UI Luke}{figure.8.1}{}}
\bibcite{analyzery}{{1}{2016}{{ana}}{{}}}
\bibcite{lucene}{{2}{2016}{{luc}}{{}}}
\bibcite{luke}{{3}{2016}{{luk}}{{}}}
\bibcite{mlt}{{4}{}{{mlt}}{{}}}
\bibcite{scoring}{{5}{}{{sco}}{{}}}
\bibcite{tika}{{6}{}{{tik}}{{}}}
\bibcite{Baeza}{{7}{1999}{{Baeza-Yates -- Ribeiro-Neto}}{{Baeza-Yates, Ribeiro-Neto}}}
\bibcite{LDA}{{8}{2003}{{Blei et~al.}}{{Blei, Ng,, Jordan}}}
\bibcite{LDAeasy}{{9}{2011}{{Chen}}{{}}}
\bibcite{SearchEngines}{{10}{2009}{{Croft et~al.}}{{Croft, Metzler,, Strohman}}}
\bibcite{mastersthesis}{{11}{2014}{{Kot\IeC {\'\i }kov\IeC {\'a}}}{{}}}
\@writefile{toc}{\contentsline {chapter}{Literatura}{31}{chapter*.2}}
\bibcite{Kratky}{{12}{2002}{{Kr\IeC {\'a}tk\IeC {\'y}}}{{}}}
\bibcite{lecocq}{{13}{2015}{{Lecocq}}{{}}}
\bibcite{Mining}{{14}{2011}{{Leskovec et~al.}}{{Leskovec, Rajaraman,, Ullman}}}
\bibcite{BioLemmatizer}{{15}{2012}{{Liu et~al.}}{{Liu, Christiansen, William A~Baumgartner,, Verspoor}}}
\bibcite{Manning}{{16}{2008}{{Manning et~al.}}{{Manning, Raghavan,, Sch\IeC {\"u}tze}}}
\bibcite{jaccard}{{17}{2013}{{Phillips}}{{}}}
\bibcite{Salton}{{18}{1971}{{Salton}}{{}}}
\bibcite{Schwarz}{{19}{2003}{{Schwarz}}{{}}}
\bibcite{strakova14}{{20}{2014}{{Strakov\'{a} et~al.}}{{Strakov\'{a}, Straka,, Haji\v {c}}}}
\bibcite{SLDA}{{21}{2007}{{Wang -- Grimson}}{{Wang, Grimson}}}
\bibcite{Hastings}{{22}{2004}{{Wiemer-Hastings}}{{}}}
\bibcite{wiki:LDA}{{23}{}{{Wikipedia}}{{}}}
\bibcite{wiki:PR}{{24}{2016}{{Wikipedia}}{{}}}
